Orchestrating Large-Scale Single-Cell Analysis with Bioconductor: Accessing data from the Human Cell Atlas (HCA)
…
Summarizing the metadata

For each distinct tissue and dataset combination, count the number of
datasets by tissue type.

R

metadata |>
  distinct(tissue, dataset_id) |> 
  count(tissue)

OUTPUT

# A tibble: 33 × 2
   tissue                             n
   <chr>                          <int>
 1 adrenal gland                      1
 2 axilla                             1
 3 blood                             17
 4 bone marrow                        4
 5 caecum                             1
 6 caudate lobe of liver              1
 7 cortex of kidney                   7
 8 dorsolateral prefrontal cortex     1
 9 epithelium of esophagus            1
10 fovea centralis                    1
# ℹ 23 more rows
…
