…
Let's examine the metadata to understand what information it contains.

We can tally the tissue types across datasets to see what tissues the experimental data come from:


``` r
metadata |>
  distinct(tissue, dataset_id) |> 
  count(tissue) |> 
  arrange(-n)
```

``` output
# A tibble: 33 × 2
   tissue                   n
   <chr>                <int>
 1 blood                   17
 2 kidney                   8
 3 cortex of kidney         7
 4 heart left ventricle     7
 5 renal medulla            6
 6 respiratory airway       6
 7 bone marrow              4
 8 kidney blood vessel      4
 9 lung                     4
10 renal pelvis             4
# ℹ 23 more rows
```
…
Use `count` and `arrange` to get the number of cells per tissue in descending
order.

:::::::::::::: solution


``` r
metadata |>
    count(tissue) |>
    arrange(-n)
```

``` output
# A tibble: 33 × 2
   tissue                          n
   <chr>                       <int>
 1 cortex of kidney            36940
 2 kidney                      23549
 3 lung parenchyma             16719
 4 renal medulla                7729
 5 respiratory airway           7153
 6 blood                        4248
 7 bone marrow                  4113
 8 heart left ventricle         1454
 9 transition zone of prostate  1140
10 lung                         1137
# ℹ 23 more rows
```
…
Spot some differences between the `tissue` and `tissue_harmonised` columns.
Use `count` to summarise.

:::::::::::::: solution


``` r
metadata |>
    count(tissue) |>
    arrange(-n)
```

``` output
# A tibble: 33 × 2
   tissue                          n
   <chr>                       <int>
 1 cortex of kidney            36940
 2 kidney                      23549
 3 lung parenchyma             16719
 4 renal medulla                7729
 5 respiratory airway           7153
 6 blood                        4248
 7 bone marrow                  4113
 8 heart left ventricle         1454
 9 transition zone of prostate  1140
10 lung                         1137
# ℹ 23 more rows
```
…
